Lab 1: Data Science Tools
…
b. For each gauge and water year, compute: total annual discharge, peak daily discharge, and number of days below the low-flow threshold.

Code

discharge_threshold <- rolling_with_threshold |>
group_by(site_no,water_year)|>
summarise(
total_annual_discharge= sum(Flow,na.rm=TRUE),
peak_daily_discharge= max(Flow,na.rm=TRUE),
low_flow_days= sum(below_threshold,na.rm=TRUE),
.groups="drop") #remove groupings

discharge_threshold

# A tibble: 308 × 5
   site_no  water_year total_annual_discharge peak_daily_discharge low_flow_days
   <chr>         <dbl>                  <dbl>                <dbl>         <int>
 1 09085000       1980                 432890                 7170             0
 2 09085000       1981                 271835                 4110           103
 3 09085000       1982                 469712                 5500             0
 4 09085000       1983                 603893                11200            11
 5 09085000       1984                 765741                 9510             0
 6 09085000       1985                 644976                 9690             0
 7 09085000       1986                 624342                 7020             0
 8 09085000       1987                 460126                 5720             0
 9 09085000       1988                 314527                 4090             2
10 09085000       1989                 303507                 2920            47
# ℹ 298 more rows
…
