lab-05
…
collect_metrics(final_fit)

# A tibble: 2 × 4
  .metric .estimator .estimate .config        
  <chr>   <chr>          <dbl> <chr>          
1 rmse    standard       0.572 pre0_mod0_post0
2 rsq     standard       0.857 pre0_mod0_post0

collect_predictions(final_fit)

# A tibble: 168 × 5
   .pred id               q_mean  .row .config        
   <dbl> <chr>             <dbl> <int> <chr>          
 1  1.59 train/test split  2.07     27 pre0_mod0_post0
 2  1.73 train/test split  2.11     28 pre0_mod0_post0
 3  1.45 train/test split  1.50     30 pre0_mod0_post0
 4  1.70 train/test split  1.96     33 pre0_mod0_post0
 5  1.60 train/test split  1.84     36 pre0_mod0_post0
 6  2.13 train/test split  2.97     38 pre0_mod0_post0
 7  1.63 train/test split  2.07     41 pre0_mod0_post0
 8  1.38 train/test split  0.853    43 pre0_mod0_post0
 9  1.28 train/test split  0.918    45 pre0_mod0_post0
10  1.42 train/test split  1.90     49 pre0_mod0_post0
# ℹ 158 more rows
…
